	nr	type	variant labels	final label
0	1	type of data	data is annotation/metadata, annotation, annotation/metadata, metadata	annotation/metadata
1	2	type of data	data is spoken language, data is sound, audio, audio/ video	audio/ video
2	3	type of data	data are in authority files, authory files, authority data, authoriy files, authority files	authority files
3	4	type of data	data should be cited, citation	citation
4	5	type of data	data is non-textual, image	image
5	6	type of data	data is sensitive, sensitive data, legal issues, data is senstive,legal consultation, legal issues	legal issues
6	7	type of data	data is LOD, LOD, text-as-graph, support of knowledge networks, LOD	LOD
7	8	type of data	data is multilingual, multilingual, multilingual data, minority languages, multilingual	multilingual data
8	9	type of data	data is in non-European languages, non-Europan languages, non-European languages, non-european languages, non-European languages	non-European languages
9	10	type of data	non-latin-scripts, non_latin scripts, non-Latin scripts	non-Latin scripts
10	11	type of data	data are questionaries, questionaries	questionaries
11	12	type of data	data should be referenced, referenciability	referenciability
12	13	type of data	data is textual, data is text, text	text
13	14	type of data	data is unstructured, long tail, unstructured data	unstructured data
14	15	type of link	corpus-authority files, corpus-authority files, corpus-authority files	corpus-authority files linking
15	16	type of link	corpus-corpus, corpus-corpus, corpus-corpus	corpus-corpus linking
16	17	type of link	corpus-tool, interconnection corpus-tool, corpus-tools, corpus-tool	corpus-tool linking
17	18	type of link	edition-authority files, edition-authority files	edition-authority files linking
18	19	type of link	edition-edition, , edition-edition	edition-edition linking
19	20	type of link	edition-map, edition-map	edition-map linking
20	21	type of link	edition-model, edition-model	edition-model linking
21	23	type of link	edition-edition, connection of edition-edition, link edition-edition	edition-edition linking
22	24	type of link	lexical resource-corpus, lexical resources-corpus, lexical resources-corpora, repository-lexical resources, , link lexical resource-corpus	lexical resource-corpus linking
23	25	type of link	lexical resource-lexical resource, lexical resource-lexical resouce, link lexical resource-lexical resource	lexical resource-lexical resource linking
24	26	type of requirement	FAIR, FAIR	FAIR
25	27	type of requirement	off line, off line	off line
26	28	type of requirement	network of researchers, wants feedback, researchers network, researchers networks	researchers network
27	29	type of requirement 	resources should be free, free learning material, free	free-of-charge
28	34	type of situation	the researcher has data, has data, has data	data production
29	35	type of situation	the researcher wants/needs tools, wants tool, wants tools, analytic tool, visualisation tools, want tool, has tool, has tools	tool production
30	30	type of situation	the researcher wants annotation, wants annotation, annotation	interest in annotation
31	31	type of situation	the researcher wants to edit authority files, edit cataloge, authority files edition	authority files edition
32	32	type of situation	the researcher wants to transform the data-format, wants to transform the data-format, transform formats, transformation of format, format transformation, support	format transformation
33	33	type of situation	the researcher funding application support, funding application support, funding consulting, needs support	funding consulting
34	36	type of situation	independent scholar, independent scholar	independent scholar
35	37	type of situation	the researcher wants/needs learning material, wants learning material, learning materials, needs training, competence, the researcher wants learning material, The researcher wants learning material, learning material, learning	interest in learning
36	38	type of situation	the researcher wants to interconnect their data, interconnect data, interconnect their data, interconnection of data, wants interaconection of data, wants interconection of data,wants to interconnect their data, wants integration with tools, wants interconection, wants interconnection between datasets, wants interconnections between datasets, connecting data, interconnected data, wants interconnection of data, linking data, interested in data linking, interested in linking data, interestes in data linking	interest in data linking
37	39	type of situation	the researcher wants/needs standards, needs standards, wants standards, wants presentation standards, wants standard, new standards, interested in new standards, standards	interest in new standards
38	40	type of situation	the researcher wants digitization, wants digitization, OCR, wants digitization, wants OCR, OCR	interest in  OCR
39	41	type of situation	the researcher wants support of own teaching, needs support for own teaching activity, wants teaching material, teaching material, teaching	interest in teaching
40	42	type of situation	technical support, technical support	technical support
41	43	type of situation	test, testing	interest in testing
42	44	type of situation	the researcher wants maintenance of tool, needs maintenance of tool, wants maintenance, needs tool maintenance, maintenance of interface, maintenance of presentation, maintenance of tool, needs support of tool, tool maintenance	tool maintenance
43	45	type of situation	the researcher wants/needs data, wants data, wants data	interest in further data
44	46	type of situation	the researcher has tools, has tool, wants tool, interested in further tools	interest in further tools
45	47	type of tool	the researcher needs APIs, APIs, wants API, APIs, API	interest in APIs
46	48	type of tool	integrated search, federated content search, federated search	interest in federated search
47	49	type of tool	hosting, wants website, hosting	interest in hosting
48	50	type of tool	lemmatizer, lemmatizer, lemmatizer	interest in lemmatizer
49	51	type of tool	management tool, management, wants data management tool, data management, manage tool,manage tool of corpus,manage tool of metadata and annotation,management data tool, tool for annotation, wants manage tool, wants management tool, management tool	interest in management tool
50	52	type of tool	Named Entity Recognizer, name-entity recognition,named entity recognition, named-entity recognition	interest in named-entity recognition
51	53	type of tool	ortographic normalization, orthographic normalization	interest in orthographic normalization
52	54	type of tool	POS tagger, POS tagger	interest in POS tagger
53	55	type of tool	wants publishing tool, wants publishing tool, presentation of the edition, publisher, presentation of the edition,	interest in presentation
54	56	type of tool	query tool, query tool	interest in query tool
55	57	type of tool	repository, wants repository, needs repositories, needs repository, repository	interest in repository
56	58	type of tool	repository management, repository managment, repository management	interest in repository management
57	59	type of tool	sentiment analysis, sentiment analysis	interest in sentiment analysis
58	60	type of tool	versioning, versioning	interest in versioning
